<?xml version="1.0" encoding="UTF-8"?>
<testsuites>
  <testsuite name="TAddepisode" file="/home/ubuntu/workspace/application/tests/libraries/iteration3/TAddepisode.php" tests="2" assertions="2" failures="0" errors="0" time="5.782990">
    <testcase name="when_add_Name_only_return_true" class="TAddepisode" file="/home/ubuntu/workspace/application/tests/libraries/iteration3/TAddepisode.php" line="15" assertions="1" time="5.562269"/>
    <testcase name="when_not_add_Name_only_return_false" class="TAddepisode" file="/home/ubuntu/workspace/application/tests/libraries/iteration3/TAddepisode.php" line="33" assertions="1" time="0.220721"/>
  </testsuite>
</testsuites>
